#	property_key	property_name
"1"	"latlon"	"緯度・経度(日本測地)"
"2"	"url"	"コーポレートサイトURL"
"3"	"fax"	"FAX番号"
"4"	"listed_type"	"上場区分"
"5"	"account_close"	"決算月"
"6"	"founding_dt"	"設立年月"
"7"	"capital"	"資本金"
"8"	"employee_div"	"従業員数"
"9"	"sale_div"	"売上高"
"10"	"dept_position"	"代表者役職名"
"11"	"dept_name"	"代表者氏名"
"12"	"business"	"業種"
