―――――――――――――――――――――――――――――――――――――――――――
「オープンサイト」へのご登録が完了いたしました。
―――――――――――――――――――――――――――――――――――――――――――
いつもお世話になっております。
株式会社ナビット　オープンサイト事務局でございます。

この度は「オープンサイト」にご登録頂きまして誠にありがとうございます。
会員登録の手続きが完了致しましたのでお知らせ致します。

以下の内容でログインIDとパスワードを発行致しましたのでご確認ください。
こちらのログインIDとパスワードは「オープンサイト」のサービスをご利用の際に
必要となりますので大切に保管して頂くようお願い申し上げます。

■ログインIDとパスワードは以下のサービスでご利用できます。
[法人電話帳サービス][アタックNo.1][FAX番号リスト送信サービス][オープン君][名刺にふるふる][法人番号検索]


―――――――――――――――――――――――――――――――――――――――――――
【ログインID】[LOGINID]

【パスワード】[PASSWORD]
―――――――――――――――――――――――――――――――――――――――――――

【ご登録内容】

会社名：[COMPANY_NAME]
部署名：[DEPARTMENT_NAME]
役職名：[POST_NAME]
お名前：[CONTRACTOR_NAME]
郵便番号：[ZIP]
住所：[ADDRESS]
電話番号：[PHONE_NO]
メールアドレス：[EMAIL]

【ご注意下さい】
◆当メールに心当たりの無い場合は、誠に恐れ入りますが
　破棄して頂けますよう、よろしくお願い致します。


どうぞ宜しくお願い申し上げます。

***************************************************************
株式会社 ナビット オープンサイト事務局
TEL：03-5215-5713　FAX：03-5215-5702
・東京本社
住所：〒102-0074　東京都千代田区九段南1-5-5 九段サウスサイドスクエア8F
・大阪支社
住所：〒530-0001　大阪府大阪市北区梅田1-11-4-1100
　　　　　　　　　 大阪駅前第四ビル11階10号室
TEL 06-4799-9201　　FAX 06-4799-9011
***************************************************************
