―――――――――――――――――――――――――――――――――――――――――――                  
「法人番号検索」への会員登録がありましたのでお知らせ致します
―――――――――――――――――――――――――――――――――――――――――――
【登録者情報】
会社名：[COMPANY_NAME]
部署名：[DEPARTMENT_NAME]
役職名：[POST_NAME]
お名前：[CONTRACTOR_NAME]
郵便番号：[ZIP]
住所：[ADDRESS]
電話番号：[PHONE_NO]
メールアドレス：[EMAIL]
サイトを知ったきっかけ：[FROM]


*********************************************************
法人番号検索
*********************************************************
