―――――――――――――――――――――――――――――――――――――――――――                  
ナビットプリペイドポイント購入のお申込みがありましたのでお知らせ致します
―――――――――――――――――――――――――――――――――――――――――――
【依頼者情報】

ご注文番号：[REQUEST_ID]

ユーザーID：[ID]
会社名：[COMPANY_NAME]
部署名：[DEPARTMENT_NAME]
役職名：[POST_NAME]
お名前：[CONTRACTOR_NAME]
郵便番号：[ZIP]
住所：[ADDRESS]
メールアドレス：[EMAIL]


■ナビットトプリペイドポイント　ご購入内容

お支払い方法：[PAYMENT]
ご依頼口数：[LOT] 口（[POINT] ポイント）
金額：[PRICE] 円


*********************************************************
法人番号検索
*********************************************************
