[COMPANY_NAME]　[CONTRACTOR_NAME] 様

―――――――――――――――――――――――――――――――――――――――――――                  
「法人番号検索 お試しサービス」へのご依頼、ありがとうございます。
―――――――――――――――――――――――――――――――――――――――――――

法人番号検索 お試しサービスをご利用いただき、
誠にありがとうございます。

下記内容にて、ご依頼を承りました。

【お客様情報】
会社名：[COMPANY_NAME]
部署名：[DEPARTMENT_NAME]
役職名：[POST_NAME]
お名前：[CONTRACTOR_NAME]
郵便番号：[ZIP]
住所：[ADDRESS]
電話番号：[PHONE_NO]
FAX番号：[FAX_NO]
メールアドレス：[EMAIL]

【ご依頼内容】
[REQUEST_DETAIL]

ご依頼の内容に関しましては、マイページよりご確認いただけます。

また、付与結果に関しましても、確定し次第、
マイページへ反映させていただきますので、そちらより反映を確認し、
データダウンロードをお願いいたします。

◆当メールは送信専用メールアドレスから配信されています。
　このままご返信いただいてもお答えできませんのでご了承ください。

◆当メールに心当たりの無い場合は、誠に恐れ入りますが
　破棄して頂けますよう、よろしくお願い致します。


***************************************************************
株式会社 ナビット 法人番号検索事務局
TEL:0120-937-781 　FAX:03-5215-5702
・東京本社
住所：〒102-0074　東京都千代田区九段南1-5-5 九段サウスサイドスクエア8F
・大阪支社
住所：〒530-0001　大阪府大阪市北区梅田1-11-4-1100
　　　　　　　　　 大阪駅前第四ビル10階1-1号室
TEL 06-4799-9201　　FAX 06-4799-9011
※本サービスについては、「法人番号検索」で検索して下さい。
***************************************************************
