[COMPANY_NAME]　[CONTRACTOR_NAME] 様

―――――――――――――――――――――――――――――――――――――――――――                  
「法人番号検索」の退会手続きが完了いたしました。
―――――――――――――――――――――――――――――――――――――――――――
いつもお世話になっております。
株式会社ナビット　法人番号検索事務局でございます。

この度は「法人番号検索」をご利用いただき誠にありがとうございました。
会員退会の手続きが完了致しましたのでお知らせ致します。


【ご注意下さい】
◆当メールに心当たりの無い場合は、誠に恐れ入りますが
　破棄して頂けますよう、よろしくお願い致します。


どうぞ宜しくお願い申し上げます。


***************************************************************
株式会社 ナビット 法人番号検索事務局
TEL:0120-937-781 　FAX:03-5215-5702
・東京本社
住所：〒102-0074　東京都千代田区九段南1-5-5 九段サウスサイドスクエア8F
・大阪支社
住所：〒530-0001　大阪府大阪市北区梅田1-11-4-1100
　　　　　　　　　 大阪駅前第四ビル10階1-1号室
TEL 06-4799-9201　　FAX 06-4799-9011
※本サービスについては、「法人番号検索」で検索して下さい。
***************************************************************
